…
``` r
aggregate_df = 
  homicide_df %>%
  group_by(city_state) %>%
  summarise(
    hom_total = n(),
    hom_unsolved = sum(resolved == "unsolved")
  ) %>%
  arrange(hom_total)

aggregate_df
```

    ## # A tibble: 50 x 3
    ##    city_state        hom_total hom_unsolved
    ##    <chr>                 <int>        <int>
    ##  1 Tampa_FL                208           95
    ##  2 Savannah_GA             246          115
    ##  3 San Bernardino_CA       275          170
    ##  4 Durham_NC               276          101
    ##  5 Denver_CO               312          169
    ##  6 Minneapolis_MN          366          187
    ##  7 Sacramento_CA           376          139
    ##  8 Albuquerque_NM          378          146
    ##  9 Long Beach_CA           378          156
    ## 10 Omaha_NE                409          169
    ## # ... with 40 more rows
…
``` r
# simulate 5000 datasets with μ = 0
set.seed(123)
sim_results0 = 
  rerun(5000, t_test(0)) %>%
  bind_rows

# preview sim_results0
sim_results0
```

    ## # A tibble: 5,000 x 2
    ##    estimate p.value
    ##       <dbl>   <dbl>
    ##  1  -0.236   0.794 
    ##  2   0.892   0.252 
    ##  3   0.122   0.879 
    ##  4  -0.469   0.575 
    ##  5  -0.918   0.388 
    ##  6   0.769   0.379 
    ##  7   0.0735  0.934 
    ##  8  -0.448   0.578 
    ##  9   0.254   0.789 
    ## 10   1.68    0.0483
    ## # ... with 4,990 more rows
…
# preview sim_results
sim_results
```

    ## # A tibble: 30,000 x 3
    ##    sample_mean estimate p.value
    ##          <dbl>    <dbl>   <dbl>
    ##  1           1   0.764  0.400  
    ##  2           1   1.89   0.0191 
    ##  3           1   1.12   0.168  
    ##  4           1   0.531  0.527  
    ##  5           1   0.0821 0.938  
    ##  6           1   1.77   0.0487 
    ##  7           1   1.07   0.234  
    ##  8           1   0.552  0.494  
    ##  9           1   1.25   0.192  
    ## 10           1   2.68   0.00266
    ## # ... with 29,990 more rows
…
